enfase-mejo001.csv

Record Length,2500,Points,-124.9999914E-6,560.000002384E-3,
Sample Interval,100.0000012E-9,s,-124.8999906E-6,560.000002384E-3,
Trigger Point,1.2500000E3,Samples,-124.7999899E-6,560.000002384E-3,
,,,-124.6999891E-6,560.000002384E-3,
,,,-124.5999883E-6,539.999961853E-3,
,,,-124.4999876E-6,539.999961853E-3,
Source,CH1,,-124.3999868E-6,539.999961853E-3,
Vertical Units,Volts,,-124.2999861E-6,539.999961853E-3,
Vertical Scale,499.999988824E-3,,-124.1999853E-6,519.999980927E-3,
Vertical Offset,0,,-124.0999845E-6,519.999980927E-3,
Horizontal Units,s,,-123.9999983E-6,519.999980927E-3,
Horizontal Scale,25.00000029E-6,,-123.8999976E-6,519.999980927E-3,
Pt Fmt,Y,,-123.7999968E-6,500.000000000E-3,
Yzero,0.0,,-123.6999960E-6,500.000000000E-3,
Probe Atten,1.000000,,-123.5999953E-6,500.000000000E-3,
,,,-123.4999945E-6,500.000000000E-3,
Note,TDS 1001B - 16:51:56   22/04/2026,,-123.3999938E-6,479.999989271E-3,
,,,-123.2999930E-6,479.999989271E-3,
,,,-123.1999922E-6,479.999989271E-3,
,,,-123.0999915E-6,479.999989271E-3,
,,,-122.9999907E-6,459.999978542E-3,
,,,-122.8999899E-6,459.999978542E-3,
,,,-122.7999892E-6,459.999978542E-3,
,,,-122.6999884E-6,439.999997616E-3,
,,,-122.5999877E-6,439.999997616E-3,
,,,-122.4999869E-6,439.999997616E-3,
,,,-122.3999861E-6,439.999997616E-3,
,,,-122.2999854E-6,419.999986887E-3,
,,,-122.1999846E-6,419.999986887E-3,
,,,-122.0999984E-6,419.999986887E-3,
,,,-121.9999904E-6,399.99997616E-3,
,,,-121.8999896E-6,399.99997616E-3,
,,,-121.7999888E-6,399.99997616E-3,
,,,-121.6999881E-6,399.99997616E-3,
,,,-121.5999946E-6,379.99999523E-3,
,,,-121.4999938E-6,379.99999523E-3,
,,,-121.3999931E-6,379.99999523E-3,
,,,-121.2999923E-6,359.99998450E-3,
,,,-121.1999916E-6,359.99998450E-3,
,,,-121.0999908E-6,359.99998450E-3,
,,,-120.9999900E-6,340.00000358E-3,
,,,-120.8999893E-6,340.00000358E-3,
,,,-120.7999885E-6,340.00000358E-3,
,,,-120.6999877E-6,340.00000358E-3,
,,,-120.5999943E-6,319.99999285E-3,
,,,-120.4999935E-6,319.99999285E-3,
,,,-120.3999927E-6,319.99999285E-3,
,,,-120.2999920E-6,299.99998212E-3,
,,,-120.1999912E-6,299.99998212E-3,
,,,-120.0999905E-6,299.99998212E-3,
,,,-119.9999897E-6,280.00000119E-3,
,,,-119.8999889E-6,280.00000119E-3,
,,,-119.7999882E-6,280.00000119E-3,
,,,-119.6999947E-6,259.99999046E-3,
,,,-119.5999939E-6,259.99999046E-3,
,,,-119.4999932E-6,259.99999046E-3,
,,,-119.3999924E-6,239.99999464E-3,
,,,-119.2999916E-6,239.99999464E-3,
,,,-119.1999909E-6,239.99999464E-3,
,,,-119.0999901E-6,219.99999881E-3,
,,,-118.9999894E-6,219.99999881E-3,
,,,-118.8999886E-6,219.99999881E-3,
,,,-118.7999878E-6,199.99998808E-3,
,,,-118.6999943E-6,199.99998808E-3,
,,,-118.5999936E-6,199.99998808E-3,
,,,-118.4999928E-6,179.99999225E-3,
,,,-118.3999921E-6,179.99999225E-3,
,,,-118.2999913E-6,179.99999225E-3,
,,,-118.1999905E-6,159.99999642E-3,
,,,-118.0999898E-6,159.99999642E-3,
,,,-117.9999890E-6,159.99999642E-3,
,,,-117.8999883E-6,140.0000006E-3,
,,,-117.7999948E-6,140.0000006E-3,
,,,-117.6999940E-6,140.0000006E-3,
,,,-117.5999932E-6,119.9999973E-3,
,,,-117.4999925E-6,119.9999973E-3,
,,,-117.3999917E-6,119.9999973E-3,
,,,-117.2999910E-6,99.999994040E-3,
,,,-117.1999902E-6,99.999994040E-3,
,,,-117.0999894E-6,99.999994040E-3,
,,,-116.9999887E-6,79.999998212E-3,
,,,-116.8999879E-6,79.999998212E-3,
,,,-116.7999944E-6,79.999998212E-3,
,,,-116.6999937E-6,59.999998659E-3,
,,,-116.5999929E-6,59.999998659E-3,
,,,-116.4999921E-6,39.99999911E-3,
,,,-116.3999914E-6,39.99999911E-3,
,,,-116.2999906E-6,39.99999911E-3,
,,,-116.1999899E-6,19.9999996E-3,
,,,-116.0999891E-6,19.9999996E-3,
,,,-115.9999883E-6,19.9999996E-3,
,,,-115.8999949E-6,0.0,
,,,-115.7999941E-6,0.0,
,,,-115.6999933E-6,-19.9999996E-3,
,,,-115.5999926E-6,-19.9999996E-3,
,,,-115.4999918E-6,-19.9999996E-3,
,,,-115.3999910E-6,-19.9999996E-3,
,,,-115.2999903E-6,-39.99999911E-3,
,,,-115.1999895E-6,-39.99999911E-3,
,,,-115.0999888E-6,-59.999998659E-3,
,,,-114.9999880E-6,-59.999998659E-3,
,,,-114.8999945E-6,-59.999998659E-3,
,,,-114.7999938E-6,-79.999998212E-3,
,,,-114.6999930E-6,-79.999998212E-3,
,,,-114.5999922E-6,-79.999998212E-3,
,,,-114.4999915E-6,-99.999994040E-3,
,,,-114.3999907E-6,-99.999994040E-3,
,,,-114.2999899E-6,-99.999994040E-3,
,,,-114.1999892E-6,-119.9999973E-3,
,,,-114.0999884E-6,-119.9999973E-3,
,,,-113.9999877E-6,-119.9999973E-3,
,,,-113.8999942E-6,-140.0000006E-3,
,,,-113.7999934E-6,-140.0000006E-3,
,,,-113.6999927E-6,-140.0000006E-3,
,,,-113.5999919E-6,-159.99999642E-3,
,,,-113.4999911E-6,-159.99999642E-3,
,,,-113.3999904E-6,-159.99999642E-3,
,,,-113.2999896E-6,-179.99999225E-3,
,,,-113.1999888E-6,-179.99999225E-3,
,,,-113.0999881E-6,-199.99998808E-3,
,,,-112.9999946E-6,-199.99998808E-3,
,,,-112.8999938E-6,-199.99998808E-3,
,,,-112.7999931E-6,-219.99999881E-3,
,,,-112.6999923E-6,-219.99999881E-3,
,,,-112.5999916E-6,-219.99999881E-3,
,,,-112.4999908E-6,-239.99999464E-3,
,,,-112.3999900E-6,-239.99999464E-3,
,,,-112.2999893E-6,-239.99999464E-3,
,,,-112.1999885E-6,-259.99999046E-3,
,,,-112.0999877E-6,-259.99999046E-3,
,,,-111.9999943E-6,-259.99999046E-3,
,,,-111.8999935E-6,-280.00000119E-3,
,,,-111.7999927E-6,-280.00000119E-3,
,,,-111.6999920E-6,-299.99998212E-3,
,,,-111.5999912E-6,-299.99998212E-3,
,,,-111.4999905E-6,-299.99998212E-3,
,,,-111.3999897E-6,-319.99999285E-3,
,,,-111.2999889E-6,-319.99999285E-3,
,,,-111.1999882E-6,-319.99999285E-3,
,,,-111.0999947E-6,-319.99999285E-3,
,,,-110.9999939E-6,-340.00000358E-3,
,,,-110.8999932E-6,-340.00000358E-3,
,,,-110.7999924E-6,-359.99998450E-3,
,,,-110.6999916E-6,-359.99998450E-3,
,,,-110.5999909E-6,-359.99998450E-3,
,,,-110.4999901E-6,-379.99999523E-3,
,,,-110.3999894E-6,-379.99999523E-3,
,,,-110.2999886E-6,-379.99999523E-3,
,,,-110.1999878E-6,-399.99997616E-3,
,,,-110.0999943E-6,-399.99997616E-3,
,,,-109.9999936E-6,-399.99997616E-3,
,,,-109.8999928E-6,-399.99997616E-3,
,,,-109.7999921E-6,-419.999986887E-3,
,,,-109.6999913E-6,-419.999986887E-3,
,,,-109.5999905E-6,-419.999986887E-3,
,,,-109.4999898E-6,-439.999997616E-3,
,,,-109.3999890E-6,-439.999997616E-3,
,,,-109.2999883E-6,-439.999997616E-3,
,,,-109.1999948E-6,-459.999978542E-3,
,,,-109.0999940E-6,-459.999978542E-3,
,,,-108.9999932E-6,-459.999978542E-3,
,,,-108.8999925E-6,-479.999989271E-3,
,,,-108.7999917E-6,-479.999989271E-3,
,,,-108.6999910E-6,-479.999989271E-3,
,,,-108.5999902E-6,-500.000000000E-3,
,,,-108.4999894E-6,-500.000000000E-3,
,,,-108.3999887E-6,-500.000000000E-3,
,,,-108.2999879E-6,-519.999980927E-3,
,,,-108.1999944E-6,-519.999980927E-3,
,,,-108.0999937E-6,-519.999980927E-3,
,,,-107.9999929E-6,-539.999961853E-3,
,,,-107.8999921E-6,-539.999961853E-3,
,,,-107.7999914E-6,-539.999961853E-3,
,,,-107.6999906E-6,-539.999961853E-3,
,,,-107.5999899E-6,-560.000002384E-3,
,,,-107.4999891E-6,-560.000002384E-3,
,,,-107.3999883E-6,-560.000002384E-3,
,,,-107.2999876E-6,-560.000002384E-3,
,,,-107.1999941E-6,-579.999983311E-3,
,,,-107.0999933E-6,-579.999983311E-3,
,,,-106.9999926E-6,-579.999983311E-3,
,,,-106.8999918E-6,-599.999964237E-3,
,,,-106.7999910E-6,-599.999964237E-3,
,,,-106.6999903E-6,-599.999964237E-3,
,,,-106.5999895E-6,-599.999964237E-3,
,,,-106.4999888E-6,-620.000004768E-3,
,,,-106.3999880E-6,-620.000004768E-3,
,,,-106.2999945E-6,-620.000004768E-3,
,,,-106.1999938E-6,-620.000004768E-3,
,,,-106.0999930E-6,-639.999985695E-3,
,,,-105.9999922E-6,-639.999985695E-3,
,,,-105.8999915E-6,-639.999985695E-3,
,,,-105.7999907E-6,-639.999985695E-3,
,,,-105.6999899E-6,-659.999966621E-3,
,,,-105.5999892E-6,-659.999966621E-3,
,,,-105.4999884E-6,-659.999966621E-3,
,,,-105.3999877E-6,-659.999966621E-3,
,,,-105.2999942E-6,-680.000007153E-3,
,,,-105.1999934E-6,-680.000007153E-3,
,,,-105.0999927E-6,-680.000007153E-3,
,,,-104.9999919E-6,-680.000007153E-3,
,,,-104.8999911E-6,-699.999988079E-3,
,,,-104.7999904E-6,-699.999988079E-3,
,,,-104.6999896E-6,-699.999988079E-3,
,,,-104.5999888E-6,-699.999988079E-3,
,,,-104.4999881E-6,-699.999988079E-3,
,,,-104.3999946E-6,-719.999969006E-3,
,,,-104.2999938E-6,-719.999969006E-3,
,,,-104.1999931E-6,-719.999969006E-3,
,,,-104.0999923E-6,-719.999969006E-3,
,,,-103.9999916E-6,-740.000009537E-3,
,,,-103.8999908E-6,-740.000009537E-3,
,,,-103.7999900E-6,-740.000009537E-3,
,,,-103.6999893E-6,-740.000009537E-3,
,,,-103.5999885E-6,-740.000009537E-3,
,,,-103.4999877E-6,-759.999990463E-3,
,,,-103.3999943E-6,-759.999990463E-3,
,,,-103.2999935E-6,-759.999990463E-3,
,,,-103.1999927E-6,-759.999990463E-3,
,,,-103.0999920E-6,-759.999990463E-3,
,,,-102.9999912E-6,-759.999990463E-3,
,,,-102.8999905E-6,-779.999971390E-3,
,,,-102.7999897E-6,-779.999971390E-3,
,,,-102.6999889E-6,-779.999971390E-3,
,,,-102.5999882E-6,-779.999971390E-3,
,,,-102.4999947E-6,-779.999971390E-3,
,,,-102.3999939E-6,-779.999971390E-3,
,,,-102.2999932E-6,-799.999952316E-3,
,,,-102.1999924E-6,-799.999952316E-3,
,,,-102.0999916E-6,-799.999952316E-3,
,,,-101.9999909E-6,-799.999952316E-3,
,,,-101.8999901E-6,-799.999952316E-3,
,,,-101.7999894E-6,-799.999952316E-3,
,,,-101.6999886E-6,-819.999992847E-3,
,,,-101.5999878E-6,-819.999992847E-3,
,,,-101.4999943E-6,-819.999992847E-3,
,,,-101.3999936E-6,-819.999992847E-3,
,,,-101.2999928E-6,-819.999992847E-3,
,,,-101.1999921E-6,-819.999992847E-3,
,,,-101.0999913E-6,-819.999992847E-3,
,,,-100.9999905E-6,-819.999992847E-3,
,,,-100.8999898E-6,-819.999992847E-3,
,,,-100.7999890E-6,-839.999973774E-3,
,,,-100.6999883E-6,-839.999973774E-3,
,,,-100.5999875E-6,-839.999973774E-3,
,,,-100.4999940E-6,-839.999973774E-3,
,,,-100.3999932E-6,-839.999973774E-3,
,,,-100.2999925E-6,-839.999973774E-3,
,,,-100.1999917E-6,-839.999973774E-3,
,,,-100.0999910E-6,-839.999973774E-3,
,,,-99.999990198E-6,-839.999973774E-3,
,,,-99.899989436E-6,-859.999954700E-3,
,,,-99.799988675E-6,-859.999954700E-3,
,,,-99.699987913E-6,-859.999954700E-3,
,,,-99.599994428E-6,-859.999954700E-3,
,,,-99.499993667E-6,-859.999954700E-3,
,,,-99.399992905E-6,-859.999954700E-3,
,,,-99.299992144E-6,-859.999954700E-3,
,,,-99.199991382E-6,-859.999954700E-3,
,,,-99.099990621E-6,-859.999954700E-3,
,,,-98.999989859E-6,-859.999954700E-3,
,,,-98.899989098E-6,-859.999954700E-3,
,,,-98.799988336E-6,-859.999954700E-3,
,,,-98.699987575E-6,-859.999954700E-3,
,,,-98.599994089E-6,-859.999954700E-3,
,,,-98.499993328E-6,-859.999954700E-3,
,,,-98.399992567E-6,-859.999954700E-3,
,,,-98.299991805E-6,-859.999954700E-3,
,,,-98.199991044E-6,-859.999954700E-3,
,,,-98.099990282E-6,-859.999954700E-3,
,,,-97.999989521E-6,-859.999954700E-3,
,,,-97.899988759E-6,-859.999954700E-3,
,,,-97.799987998E-6,-879.999995232E-3,
,,,-97.699994512E-6,-879.999995232E-3,
,,,-97.599993751E-6,-859.999954700E-3,
,,,-97.499992989E-6,-879.999995232E-3,
,,,-97.399992228E-6,-879.999995232E-3,
,,,-97.299991467E-6,-879.999995232E-3,
,,,-97.199990705E-6,-879.999995232E-3,
,,,-97.099989944E-6,-879.999995232E-3,
,,,-96.999989182E-6,-879.999995232E-3,
,,,-96.899988421E-6,-879.999995232E-3,
,,,-96.799987659E-6,-879.999995232E-3,
,,,-96.699994174E-6,-879.999995232E-3,
,,,-96.599993412E-6,-879.999995232E-3,
,,,-96.499992651E-6,-879.999995232E-3,
,,,-96.399991889E-6,-879.999995232E-3,
,,,-96.299991128E-6,-879.999995232E-3,
,,,-96.199990367E-6,-879.999995232E-3,
,,,-96.099989605E-6,-879.999995232E-3,
,,,-95.999988844E-6,-879.999995232E-3,
,,,-95.899988082E-6,-879.999995232E-3,
,,,-95.799994597E-6,-879.999995232E-3,
,,,-95.699993835E-6,-879.999995232E-3,
,,,-95.599993074E-6,-879.999995232E-3,
,,,-95.499992312E-6,-879.999995232E-3,
,,,-95.399991551E-6,-879.999995232E-3,
,,,-95.299990789E-6,-879.999995232E-3,
,,,-95.199990028E-6,-879.999995232E-3,
,,,-95.099989267E-6,-859.999954700E-3,
,,,-94.999988505E-6,-859.999954700E-3,
,,,-94.899987744E-6,-879.999995232E-3,
,,,-94.799994258E-6,-859.999954700E-3,
,,,-94.699993497E-6,-859.999954700E-3,
,,,-94.599992735E-6,-859.999954700E-3,
,,,-94.499991974E-6,-859.999954700E-3,
,,,-94.399991212E-6,-859.999954700E-3,
,,,-94.299990451E-6,-859.999954700E-3,
,,,-94.199989690E-6,-859.999954700E-3,
,,,-94.099988928E-6,-859.999954700E-3,
,,,-93.999988167E-6,-859.999954700E-3,
,,,-93.899987405E-6,-859.999954700E-3,
,,,-93.799993920E-6,-859.999954700E-3,
,,,-93.699993158E-6,-859.999954700E-3,
,,,-93.599992397E-6,-859.999954700E-3,
,,,-93.499991635E-6,-859.999954700E-3,
,,,-93.399990874E-6,-859.999954700E-3,
,,,-93.299990112E-6,-859.999954700E-3,
,,,-93.199989351E-6,-859.999954700E-3,
,,,-93.099988590E-6,-859.999954700E-3,
,,,-92.999987828E-6,-859.999954700E-3,
,,,-92.899994343E-6,-839.999973774E-3,
,,,-92.799993581E-6,-839.999973774E-3,
,,,-92.699992820E-6,-839.999973774E-3,
,,,-92.599992058E-6,-839.999973774E-3,
,,,-92.499991297E-6,-839.999973774E-3,
,,,-92.399990535E-6,-839.999973774E-3,
,,,-92.299989774E-6,-839.999973774E-3,
,,,-92.199989012E-6,-839.999973774E-3,
,,,-92.099988251E-6,-839.999973774E-3,
,,,-91.999987490E-6,-839.999973774E-3,
,,,-91.899994004E-6,-819.999992847E-3,
,,,-91.799993243E-6,-819.999992847E-3,
,,,-91.699992481E-6,-819.999992847E-3,
,,,-91.599991720E-6,-819.999992847E-3,
,,,-91.499990958E-6,-819.999992847E-3,
,,,-91.399990197E-6,-819.999992847E-3,
,,,-91.299989435E-6,-819.999992847E-3,
,,,-91.199988674E-6,-819.999992847E-3,
,,,-91.099987912E-6,-799.999952316E-3,
,,,-90.999994427E-6,-799.999952316E-3,
,,,-90.899993666E-6,-799.999952316E-3,
,,,-90.799992904E-6,-799.999952316E-3,
,,,-90.699992143E-6,-799.999952316E-3,
,,,-90.599991381E-6,-799.999952316E-3,
,,,-90.499990620E-6,-799.999952316E-3,
,,,-90.399989858E-6,-779.999971390E-3,
,,,-90.299989097E-6,-779.999971390E-3,
,,,-90.199988335E-6,-779.999971390E-3,
,,,-90.099987574E-6,-779.999971390E-3,
,,,-89.999994088E-6,-779.999971390E-3,
,,,-89.899993327E-6,-759.999990463E-3,
,,,-89.799992566E-6,-759.999990463E-3,
,,,-89.699991804E-6,-759.999990463E-3,
,,,-89.599991043E-6,-759.999990463E-3,
,,,-89.499990281E-6,-759.999990463E-3,
,,,-89.399989520E-6,-759.999990463E-3,
,,,-89.299988758E-6,-740.000009537E-3,
,,,-89.199987997E-6,-740.000009537E-3,
,,,-89.099994511E-6,-740.000009537E-3,
,,,-88.999993750E-6,-740.000009537E-3,
,,,-88.899992988E-6,-740.000009537E-3,
,,,-88.799992227E-6,-719.999969006E-3,
,,,-88.699991466E-6,-719.999969006E-3,
,,,-88.599990704E-6,-719.999969006E-3,
,,,-88.499989943E-6,-719.999969006E-3,
,,,-88.399989181E-6,-719.999969006E-3,
,,,-88.299988420E-6,-699.999988079E-3,
,,,-88.199987658E-6,-699.999988079E-3,
,,,-88.099994173E-6,-699.999988079E-3,
,,,-87.999993411E-6,-699.999988079E-3,
,,,-87.899992650E-6,-680.000007153E-3,
,,,-87.799991888E-6,-680.000007153E-3,
,,,-87.699991127E-6,-680.000007153E-3,
,,,-87.599990366E-6,-680.000007153E-3,
,,,-87.499989604E-6,-659.999966621E-3,
,,,-87.399988843E-6,-659.999966621E-3,
,,,-87.299988081E-6,-659.999966621E-3,
,,,-87.199987320E-6,-659.999966621E-3,
,,,-87.099993834E-6,-639.999985695E-3,
,,,-86.999993073E-6,-639.999985695E-3,
,,,-86.899992311E-6,-639.999985695E-3,
,,,-86.799991550E-6,-639.999985695E-3,
,,,-86.699990788E-6,-620.000004768E-3,
,,,-86.599990027E-6,-620.000004768E-3,
,,,-86.499989266E-6,-620.000004768E-3,
,,,-86.399988504E-6,-620.000004768E-3,
,,,-86.299987743E-6,-599.999964237E-3,
,,,-86.199994257E-6,-599.999964237E-3,
,,,-86.099993496E-6,-599.999964237E-3,
,,,-85.999992734E-6,-599.999964237E-3,
,,,-85.899991973E-6,-579.999983311E-3,
,,,-85.799991211E-6,-579.999983311E-3,
,,,-85.699990450E-6,-579.999983311E-3,
,,,-85.599989688E-6,-560.000002384E-3,
,,,-85.499988927E-6,-560.000002384E-3,
,,,-85.399988166E-6,-560.000002384E-3,
,,,-85.299987404E-6,-560.000002384E-3,
,,,-85.199993919E-6,-539.999961853E-3,
,,,-85.099993157E-6,-539.999961853E-3,
,,,-84.999992396E-6,-539.999961853E-3,
,,,-84.899991634E-6,-539.999961853E-3,
,,,-84.799990873E-6,-519.999980927E-3,
,,,-84.699990111E-6,-519.999980927E-3,
,,,-84.599989350E-6,-519.999980927E-3,
,,,-84.499988589E-6,-500.000000000E-3,
,,,-84.399987827E-6,-500.000000000E-3,
,,,-84.299994342E-6,-500.000000000E-3,
,,,-84.199993580E-6,-479.999989271E-3,
,,,-84.099992819E-6,-479.999989271E-3,
,,,-83.999992057E-6,-479.999989271E-3,
,,,-83.899991296E-6,-459.999978542E-3,
,,,-83.799990534E-6,-459.999978542E-3,
,,,-83.699989773E-6,-459.999978542E-3,
,,,-83.599989011E-6,-459.999978542E-3,
,,,-83.499988250E-6,-439.999997616E-3,
,,,-83.399987489E-6,-439.999997616E-3,
,,,-83.299994003E-6,-439.999997616E-3,
,,,-83.199993242E-6,-419.999986887E-3,
,,,-83.099992480E-6,-419.999986887E-3,
,,,-82.999991719E-6,-419.999986887E-3,
,,,-82.899990957E-6,-399.99997616E-3,
,,,-82.799990196E-6,-399.99997616E-3,
,,,-82.699989434E-6,-399.99997616E-3,
,,,-82.599988673E-6,-379.99999523E-3,
,,,-82.499987911E-6,-379.99999523E-3,
,,,-82.399994426E-6,-379.99999523E-3,
,,,-82.299993664E-6,-359.99998450E-3,
,,,-82.199992903E-6,-359.99998450E-3,
,,,-82.099992142E-6,-359.99998450E-3,
,,,-81.999991380E-6,-340.00000358E-3,
,,,-81.899990619E-6,-340.00000358E-3,
,,,-81.799989857E-6,-340.00000358E-3,
,,,-81.699989096E-6,-319.99999285E-3,
,,,-81.599988334E-6,-319.99999285E-3,
,,,-81.499987573E-6,-319.99999285E-3,
,,,-81.399994087E-6,-299.99998212E-3,
,,,-81.299993326E-6,-299.99998212E-3,
,,,-81.199992565E-6,-280.00000119E-3,
,,,-81.099991803E-6,-280.00000119E-3,
,,,-80.999991042E-6,-280.00000119E-3,
,,,-80.899990280E-6,-259.99999046E-3,
,,,-80.799989519E-6,-259.99999046E-3,
,,,-80.699988757E-6,-259.99999046E-3,
,,,-80.599987996E-6,-239.99999464E-3,
,,,-80.499987234E-6,-239.99999464E-3,
,,,-80.399993749E-6,-239.99999464E-3,
,,,-80.299992987E-6,-219.99999881E-3,
,,,-80.199992226E-6,-219.99999881E-3,
,,,-80.099991465E-6,-219.99999881E-3,
,,,-79.999990703E-6,-199.99998808E-3,
,,,-79.899989942E-6,-199.99998808E-3,
,,,-79.799989180E-6,-199.99998808E-3,
,,,-79.699988419E-6,-179.99999225E-3,
,,,-79.599987657E-6,-179.99999225E-3,
,,,-79.499994172E-6,-179.99999225E-3,
,,,-79.399993410E-6,-159.99999642E-3,
,,,-79.299992649E-6,-159.99999642E-3,
,,,-79.199991887E-6,-159.99999642E-3,
,,,-79.099991126E-6,-140.0000006E-3,
,,,-78.999990365E-6,-140.0000006E-3,
,,,-78.899989603E-6,-119.9999973E-3,
,,,-78.799988842E-6,-119.9999973E-3,
,,,-78.699988080E-6,-119.9999973E-3,
,,,-78.599987319E-6,-99.999994040E-3,
,,,-78.499993833E-6,-99.999994040E-3,
,,,-78.399993072E-6,-99.999994040E-3,
,,,-78.299992310E-6,-79.999998212E-3,
,,,-78.199991549E-6,-79.999998212E-3,
,,,-78.099990787E-6,-79.999998212E-3,
,,,-77.999990026E-6,-59.999998659E-3,
,,,-77.899989265E-6,-59.999998659E-3,
,,,-77.799988503E-6,-59.999998659E-3,
,,,-77.699987742E-6,-39.99999911E-3,
,,,-77.599994256E-6,-39.99999911E-3,
,,,-77.499993495E-6,-39.99999911E-3,
,,,-77.399992733E-6,-19.9999996E-3,
,,,-77.299991972E-6,-19.9999996E-3,
,,,-77.199991210E-6,-19.9999996E-3,
,,,-77.099990449E-6,0.0,
,,,-76.999989687E-6,0.0,
,,,-76.899988926E-6,0.0,
,,,-76.799988165E-6,19.9999996E-3,
,,,-76.699987403E-6,19.9999996E-3,
,,,-76.599993918E-6,39.99999911E-3,
,,,-76.499993156E-6,39.99999911E-3,
,,,-76.399992395E-6,39.99999911E-3,
,,,-76.299991633E-6,59.999998659E-3,
,,,-76.199990872E-6,59.999998659E-3,
,,,-76.099990110E-6,59.999998659E-3,
,,,-75.999989349E-6,79.999998212E-3,
,,,-75.899988587E-6,79.999998212E-3,
,,,-75.799987826E-6,99.999994040E-3,
,,,-75.699994341E-6,99.999994040E-3,
,,,-75.599993579E-6,99.999994040E-3,
,,,-75.499992818E-6,119.9999973E-3,
,,,-75.399992056E-6,119.9999973E-3,
,,,-75.299991295E-6,119.9999973E-3,
,,,-75.199990533E-6,140.0000006E-3,
,,,-75.099989772E-6,140.0000006E-3,
,,,-74.999989010E-6,140.0000006E-3,
,,,-74.899988249E-6,159.99999642E-3,
,,,-74.799987487E-6,159.99999642E-3,
,,,-74.699994002E-6,159.99999642E-3,
,,,-74.599993241E-6,179.99999225E-3,
,,,-74.499992479E-6,179.99999225E-3,
,,,-74.399991718E-6,179.99999225E-3,
,,,-74.299990956E-6,179.99999225E-3,
,,,-74.199990195E-6,199.99998808E-3,
,,,-74.099989433E-6,199.99998808E-3,
,,,-73.999988672E-6,219.99999881E-3,
,,,-73.899987910E-6,219.99999881E-3,
,,,-73.799994425E-6,219.99999881E-3,
,,,-73.699993663E-6,239.99999464E-3,
,,,-73.599992902E-6,239.99999464E-3,
,,,-73.499992141E-6,239.99999464E-3,
,,,-73.399991379E-6,259.99999046E-3,
,,,-73.299990618E-6,259.99999046E-3,
,,,-73.199989856E-6,259.99999046E-3,
,,,-73.099989095E-6,280.00000119E-3,
,,,-72.999988333E-6,280.00000119E-3,
,,,-72.899987572E-6,280.00000119E-3,
,,,-72.799994086E-6,299.99998212E-3,
,,,-72.699993325E-6,299.99998212E-3,
